{
	"2.0":{
		"releaseNotes"	: "<ul><li>Changed directory structure</li><li>Added settings page</li><li>Added upgrade page</li></ul>",
		"commits"		: 49,
		"date"			: "03/10/2017",
		"title"			: "The Updating Update"
	},
	"1.3":{
		"releaseNotes"	: "<ul><li>Added Un-pause on focus</li><li>Dynamic title of page (reflects status of paused and refreshing)</li></ul>",
		"idForHeader"	: "changeLogMainVersionNumber1",
		"commits"		: 14,
		"date"			: "03/06/2017",
		"title"			: "Github Release"
	},
	"1.2":{
		"releaseNotes"	: "<ul><li>Added Refresh button</li></ul>",
		"commits"		: 10
	},
	"1.1":{
		"releaseNotes"	: "<ul><li>Added Pause / Play button</li></ul>",
		"commits"		: 7
	},
	"1.0":{
		"releaseNotes"	: "<ul><li>Initial Forked version from craig-russell</li></ul>",
		"commits"		: 5
	}
}