[
	{"value":")","name":")"},
	{"value":"]","name":"]"},
	{"value":"|","name":"|"},
	{"value":":","name":":"},
	{"value":"-","name":"-"},
	{"value":"::","name":"::"},
	{"value":"@","name":"@"},
	{"value":" ","name":"Space"},
	{"value":"none","name":"None"}
]