[
	{"name":"core\/template\/base.css","type":"css"},
	{"name":"core\/template\/lightbox.css","type":"css"},
	{"name":"template\/theme.css","type":"css"},
	{"name":"core\/js\/errorHandle.js","type":"js"},
	{"name":"core\/js\/formatLog.js","type":"js"},
	{"name":"core\/js\/fullscreenMenu.js","type":"js"},
	{"name":"core\/js\/groups.js","type":"js"},
	{"name":"core\/js\/loghogDownloadJS.js","type":"js"},
	{"name":"core\/js\/main.js","type":"js"},
	{"name":"core\/js\/menu.js","type":"js"},
	{"name":"core\/js\/notifications.js","type":"js"},
	{"name":"core\/js\/poll.js","type":"js"},
	{"name":"core\/js\/settings.js","type":"js"},
	{"name":"core\/js\/settingsMain.js","type":"js"},
	{"name":"core\/js\/settingsSideBar.js","type":"js"},
	{"name":"core\/js\/showLog.js","type":"js"},
	{"name":"core\/js\/visibility.core.js","type":"js"},
	{"name":"core\/js\/visibility.fallback.js","type":"js"},
	{"name":"core\/js\/visibility.timers.js","type":"js"},
	{"name":"img\/close.png","type":"img","class":"closeImageForLoad"},
	{"name":"img\/downArrowSideBar.png","type":"img","class":"downArrowSideBarImageForLoad"},
	{"name":"img\/eraser.png","type":"img","class":"eraserSideBarImageForLoad"},
	{"name":"img\/Gear.png","type":"img","class":"gearImageForLoad"},
	{"name":"img\/history.png","type":"img","class":"historySideBarImageForLoad"},
	{"name":"img\/info.png","type":"img","class":"infoSideBarImageForLoad"},
	{"name":"img\/menu.png","type":"img","class":"menuImageForLoad"},
	{"name":"img\/Pause.png","type":"img","class":"pauseImageForLoad"},
	{"name":"img\/Play.png","type":"img","class":"playImageForLoad"},
	{"name":"img\/Refresh.png","type":"img","class":"refreshImageForLoad"},
	{"name":"img\/saveSideBar.png","type":"img","class":"historyAddSideBarImageForLoad"},
	{"name":"img\/search.png","type":"img","class":"searchSideBarImageForLoad"},
	{"name":"img\/trashCan.png","type":"img","class":"trashCanSideBarImageForLoad"}
]
